module go-uber-fx-grpc-showcase

go 1.21.1

require (
	go.uber.org/fx v1.20.0
	go.uber.org/zap v1.26.0
	google.golang.org/grpc v1.58.2
	google.golang.org/protobuf v1.31.0
)

require (
	github.com/golang/protobuf v1.5.3 // indirect
	go.uber.org/dig v1.17.0 // indirect
	go.uber.org/multierr v1.11.0 // indirect
	golang.org/x/net v0.12.0 // indirect
	golang.org/x/sys v0.10.0 // indirect
	golang.org/x/text v0.11.0 // indirect
	google.golang.org/genproto/googleapis/rpc v0.0.0-20230711160842-782d3b101e98 // indirect
)
